<?xml version="1.0" encoding="utf-8"?>
<!-- Generator: Adobe Illustrator 22.1.0, SVG Export Plug-In . SVG Version: 6.00 Build 0)  -->
<svg version="1.1" id="Layer_1" xmlns="http://www.w3.org/2000/svg" xmlns:xlink="http://www.w3.org/1999/xlink" x="0px" y="0px"
	 viewBox="0 0 127 127" style="enable-background:new 0 0 127 127;" xml:space="preserve">
<style type="text/css">
	.st0{fill:#FFFF00;}
</style>
<rect width="127" height="127"/>
<g id="LWPOLYLINE_7_">
	<path class="st0" d="M82.9,92.2c-4.6,7.4-11.5,13-19.6,16.1c-20.3,7.6-42.9-2.7-50.5-23s2.7-42.9,23-50.5l56-20.9
		c5.5-2,11.6-1.4,16.6,1.6c8.9,5.5,11.6,17.1,6.1,26L82.9,92.2z"/>
</g>
<g id="LWPOLYLINE_1_">
	<path d="M61.9,72.5c0-6.8-5.5-12.3-12.3-12.3c-2.2,0-4.3,0.6-6.2,1.7c-5.9,3.4-7.9,10.9-4.5,16.8c1.1,1.9,2.6,3.4,4.5,4.5
		c5.9,3.4,13.4,1.4,16.8-4.5C61.4,76.8,61.9,74.7,61.9,72.5z"/>
</g>
<g id="LWPOLYLINE">
	<path class="st0" d="M117.3,97.3c0-6.6-5.4-12-12-12c-2.1,0-4.2,0.6-6,1.6c-5.7,3.3-7.7,10.6-4.4,16.4c1.1,1.8,2.6,3.3,4.4,4.4
		c5.7,3.3,13.1,1.3,16.4-4.4C116.7,101.5,117.3,99.4,117.3,97.3z"/>
</g>
<path class="st0" d="M102.7,99.7"/>
<path class="st0" d="M149.3,135.7"/>
</svg>
